{
  "transactions": [
    {
      "transaction_id": 2,
      "currency": "RWF",
      "amount": 2000.00,
      "formatted_amount": "2,000 RWF",
      "transaction_type": "received",
      "status": "completed",
      "description": "Received 2000 RWF from +250790987654",
      "timestamp": "2024-01-15T13:15:00Z",
      "category": {
        "id": 1,
        "name": "Send Money",
        "description": "Transfer money to another user",
        "icon": "send-money"
      },
      "counterparty": {
        "person_id": 3,
        "name": "Jean Philippe Niyitegeka",
        "phone_number": "+250790987654",
        "is_favorite": true
      },
      "balance_impact": {
        "previous_balance": 100000,
        "new_balance": 102000,
        "change": "+2000"
      },
      "metadata": {
        "raw_message": "Received 2000 RWF from +250790987654",
        "processed_at": "2024-01-15T13:15:00Z"
      }
    }
  ],
  "pagination": {
    "current_page": 1,
    "total_pages": 3,
    "total_count": 25,
    "per_page": 10
  },
  "summary": {
    "total_sent": 15000.00,
    "total_received": 8500.00,
    "net_change": -6500.00
  }
}